^C:\USERS\ADMINISTRATOR\DOCUMENTS\VISUAL STUDIO 2015\PROJECTS\LAB_02\BAI_04\STDAFX.CPP
C:\USERS\ADMINISTRATOR\DOCUMENTS\VISUAL STUDIO 2015\PROJECTS\LAB_02\BAI_04\DEBUG\BAI_04.PCH
C:\USERS\ADMINISTRATOR\DOCUMENTS\VISUAL STUDIO 2015\PROJECTS\LAB_02\BAI_04\DEBUG\VC140.PDB
C:\USERS\ADMINISTRATOR\DOCUMENTS\VISUAL STUDIO 2015\PROJECTS\LAB_02\BAI_04\DEBUG\VC140.IDB
C:\USERS\ADMINISTRATOR\DOCUMENTS\VISUAL STUDIO 2015\PROJECTS\LAB_02\BAI_04\DEBUG\STDAFX.OBJ
^C:\USERS\ADMINISTRATOR\DOCUMENTS\VISUAL STUDIO 2015\PROJECTS\LAB_02\BAI_04\BAI_04.CPP
C:\USERS\ADMINISTRATOR\DOCUMENTS\VISUAL STUDIO 2015\PROJECTS\LAB_02\BAI_04\DEBUG\VC140.PDB
C:\USERS\ADMINISTRATOR\DOCUMENTS\VISUAL STUDIO 2015\PROJECTS\LAB_02\BAI_04\DEBUG\VC140.IDB
C:\USERS\ADMINISTRATOR\DOCUMENTS\VISUAL STUDIO 2015\PROJECTS\LAB_02\BAI_04\DEBUG\BAI_04.OBJ
