^C:\USERS\ADMINISTRATOR\DOCUMENTS\VISUAL STUDIO 2015\PROJECTS\LAB_01\BT_04\STDAFX.CPP
C:\USERS\ADMINISTRATOR\DOCUMENTS\VISUAL STUDIO 2015\PROJECTS\LAB_01\BT_04\DEBUG\BT_04.PCH
C:\USERS\ADMINISTRATOR\DOCUMENTS\VISUAL STUDIO 2015\PROJECTS\LAB_01\BT_04\DEBUG\VC140.PDB
C:\USERS\ADMINISTRATOR\DOCUMENTS\VISUAL STUDIO 2015\PROJECTS\LAB_01\BT_04\DEBUG\VC140.IDB
C:\USERS\ADMINISTRATOR\DOCUMENTS\VISUAL STUDIO 2015\PROJECTS\LAB_01\BT_04\DEBUG\STDAFX.OBJ
^C:\USERS\ADMINISTRATOR\DOCUMENTS\VISUAL STUDIO 2015\PROJECTS\LAB_01\BT_04\BT_04.CPP
C:\USERS\ADMINISTRATOR\DOCUMENTS\VISUAL STUDIO 2015\PROJECTS\LAB_01\BT_04\DEBUG\VC140.PDB
C:\USERS\ADMINISTRATOR\DOCUMENTS\VISUAL STUDIO 2015\PROJECTS\LAB_01\BT_04\DEBUG\VC140.IDB
C:\USERS\ADMINISTRATOR\DOCUMENTS\VISUAL STUDIO 2015\PROJECTS\LAB_01\BT_04\DEBUG\BT_04.OBJ
