^F:\HOCKY2B\DHMT\PRACTICE\DHMT\LAB_03\BAI2_GAME_SNAKE\DEBUG\BAI2_GAME_SNAKE.OBJ|F:\HOCKY2B\DHMT\PRACTICE\DHMT\LAB_03\BAI2_GAME_SNAKE\DEBUG\ENTITIES.OBJ|F:\HOCKY2B\DHMT\PRACTICE\DHMT\LAB_03\BAI2_GAME_SNAKE\DEBUG\GAME.OBJ|F:\HOCKY2B\DHMT\PRACTICE\DHMT\LAB_03\BAI2_GAME_SNAKE\DEBUG\GLOBAL.OBJ|F:\HOCKY2B\DHMT\PRACTICE\DHMT\LAB_03\BAI2_GAME_SNAKE\DEBUG\STDAFX.OBJ
F:\HOCKY2B\DHMT\PRACTICE\DHMT\LAB_03\BAI2_GAME_SNAKE\DEPENDENCIES\SDL2\SDL2.LIB
F:\HOCKY2B\DHMT\PRACTICE\DHMT\LAB_03\BAI2_GAME_SNAKE\DEPENDENCIES\SDL2\SDL2MAIN.LIB
F:\HOCKY2B\DHMT\PRACTICE\DHMT\LAB_03\BAI2_GAME_SNAKE\DEPENDENCIES\SDL2\SDL2TEST.LIB
F:\HOCKY2B\DHMT\PRACTICE\DHMT\LAB_03\BAI2_GAME_SNAKE\DEPENDENCIES\GLEW\GLEW32.LIB
F:\HOCKY2B\DHMT\PRACTICE\DHMT\LAB_03\BAI2_GAME_SNAKE\DEPENDENCIES\FREEGLUT\FREEGLUT.LIB
C:\PROGRAM FILES (X86)\WINDOWS KITS\10\LIB\10.0.17763.0\UM\X86\KERNEL32.LIB
C:\PROGRAM FILES (X86)\WINDOWS KITS\10\LIB\10.0.17763.0\UM\X86\USER32.LIB
C:\PROGRAM FILES (X86)\WINDOWS KITS\10\LIB\10.0.17763.0\UM\X86\GDI32.LIB
C:\PROGRAM FILES (X86)\WINDOWS KITS\10\LIB\10.0.17763.0\UM\X86\WINSPOOL.LIB
C:\PROGRAM FILES (X86)\WINDOWS KITS\10\LIB\10.0.17763.0\UM\X86\COMDLG32.LIB
C:\PROGRAM FILES (X86)\WINDOWS KITS\10\LIB\10.0.17763.0\UM\X86\ADVAPI32.LIB
C:\PROGRAM FILES (X86)\WINDOWS KITS\10\LIB\10.0.17763.0\UM\X86\SHELL32.LIB
C:\PROGRAM FILES (X86)\WINDOWS KITS\10\LIB\10.0.17763.0\UM\X86\OLE32.LIB
C:\PROGRAM FILES (X86)\WINDOWS KITS\10\LIB\10.0.17763.0\UM\X86\OLEAUT32.LIB
C:\PROGRAM FILES (X86)\WINDOWS KITS\10\LIB\10.0.17763.0\UM\X86\UUID.LIB
C:\PROGRAM FILES (X86)\WINDOWS KITS\10\LIB\10.0.17763.0\UM\X86\ODBC32.LIB
C:\PROGRAM FILES (X86)\WINDOWS KITS\10\LIB\10.0.17763.0\UM\X86\ODBCCP32.LIB
F:\HOCKY2B\DHMT\PRACTICE\DHMT\LAB_03\BAI2_GAME_SNAKE\DEBUG\BAI2_GAME_SNAKE.OBJ
F:\HOCKY2B\DHMT\PRACTICE\DHMT\LAB_03\BAI2_GAME_SNAKE\DEBUG\ENTITIES.OBJ
F:\HOCKY2B\DHMT\PRACTICE\DHMT\LAB_03\BAI2_GAME_SNAKE\DEBUG\GAME.OBJ
F:\HOCKY2B\DHMT\PRACTICE\DHMT\LAB_03\BAI2_GAME_SNAKE\DEBUG\GLOBAL.OBJ
F:\HOCKY2B\DHMT\PRACTICE\DHMT\LAB_03\BAI2_GAME_SNAKE\DEBUG\STDAFX.OBJ
C:\WINDOWS\SYSTEM32\TZRES.DLL
C:\WINDOWS\GLOBALIZATION\SORTING\SORTDEFAULT.NLS
C:\PROGRAM FILES (X86)\MICROSOFT VISUAL STUDIO\2017\ENTERPRISE\VC\TOOLS\MSVC\14.16.27023\LIB\X86\MSVCRTD.LIB
C:\PROGRAM FILES (X86)\MICROSOFT VISUAL STUDIO\2017\ENTERPRISE\VC\TOOLS\MSVC\14.16.27023\LIB\X86\OLDNAMES.LIB
C:\PROGRAM FILES (X86)\MICROSOFT VISUAL STUDIO\2017\ENTERPRISE\VC\TOOLS\MSVC\14.16.27023\LIB\X86\VCRUNTIMED.LIB
C:\PROGRAM FILES (X86)\WINDOWS KITS\10\LIB\10.0.17763.0\UCRT\X86\UCRTD.LIB
C:\PROGRAM FILES (X86)\WINDOWS KITS\10\BIN\10.0.17763.0\X86\RC.EXE
C:\PROGRAM FILES (X86)\MICROSOFT VISUAL STUDIO\2017\ENTERPRISE\VC\TOOLS\MSVC\14.16.27023\BIN\HOSTX86\X86\CVTRES.EXE
