^C:\USERS\ADMINISTRATOR\DOCUMENTS\VISUAL STUDIO 2015\PROJECTS\LAB_03\BAI3_GAME_PONG\STDAFX.CPP
/c /ZI /nologo /W3 /WX- /sdl /Od /Oy- /D WIN32 /D _DEBUG /D _CONSOLE /D _UNICODE /D UNICODE /Gm /EHsc /RTC1 /MDd /GS /fp:precise /Zc:wchar_t /Zc:forScope /Zc:inline /Yc"stdafx.h" /Fp"DEBUG\BAI3_GAME_PONG.PCH" /Fo"DEBUG\\" /Fd"DEBUG\VC140.PDB" /Gd /TP /analyze- C:\USERS\ADMINISTRATOR\DOCUMENTS\VISUAL STUDIO 2015\PROJECTS\LAB_03\BAI3_GAME_PONG\STDAFX.CPP
^C:\USERS\ADMINISTRATOR\DOCUMENTS\VISUAL STUDIO 2015\PROJECTS\LAB_03\BAI3_GAME_PONG\BAI3_GAME_PONG.CPP
/c /ZI /nologo /W3 /WX- /sdl /Od /Oy- /D WIN32 /D _DEBUG /D _CONSOLE /D _UNICODE /D UNICODE /Gm /EHsc /RTC1 /MDd /GS /fp:precise /Zc:wchar_t /Zc:forScope /Zc:inline /Yu"stdafx.h" /Fp"DEBUG\BAI3_GAME_PONG.PCH" /Fo"DEBUG\\" /Fd"DEBUG\VC140.PDB" /Gd /TP /analyze- C:\USERS\ADMINISTRATOR\DOCUMENTS\VISUAL STUDIO 2015\PROJECTS\LAB_03\BAI3_GAME_PONG\BAI3_GAME_PONG.CPP
^C:\USERS\ADMINISTRATOR\DOCUMENTS\VISUAL STUDIO 2015\PROJECTS\LAB_03\BAI3_GAME_PONG\BALL.CPP
/c /ZI /nologo /W3 /WX- /sdl /Od /Oy- /D WIN32 /D _DEBUG /D _CONSOLE /D _UNICODE /D UNICODE /Gm /EHsc /RTC1 /MDd /GS /fp:precise /Zc:wchar_t /Zc:forScope /Zc:inline /Yu"stdafx.h" /Fp"DEBUG\BAI3_GAME_PONG.PCH" /Fo"DEBUG\\" /Fd"DEBUG\VC140.PDB" /Gd /TP /analyze- C:\USERS\ADMINISTRATOR\DOCUMENTS\VISUAL STUDIO 2015\PROJECTS\LAB_03\BAI3_GAME_PONG\BALL.CPP
^C:\USERS\ADMINISTRATOR\DOCUMENTS\VISUAL STUDIO 2015\PROJECTS\LAB_03\BAI3_GAME_PONG\GAME.CPP
/c /ZI /nologo /W3 /WX- /sdl /Od /Oy- /D WIN32 /D _DEBUG /D _CONSOLE /D _UNICODE /D UNICODE /Gm /EHsc /RTC1 /MDd /GS /fp:precise /Zc:wchar_t /Zc:forScope /Zc:inline /Yu"stdafx.h" /Fp"DEBUG\BAI3_GAME_PONG.PCH" /Fo"DEBUG\\" /Fd"DEBUG\VC140.PDB" /Gd /TP /analyze- C:\USERS\ADMINISTRATOR\DOCUMENTS\VISUAL STUDIO 2015\PROJECTS\LAB_03\BAI3_GAME_PONG\GAME.CPP
^C:\USERS\ADMINISTRATOR\DOCUMENTS\VISUAL STUDIO 2015\PROJECTS\LAB_03\BAI3_GAME_PONG\GLOBAL.CPP
/c /ZI /nologo /W3 /WX- /sdl /Od /Oy- /D WIN32 /D _DEBUG /D _CONSOLE /D _UNICODE /D UNICODE /Gm /EHsc /RTC1 /MDd /GS /fp:precise /Zc:wchar_t /Zc:forScope /Zc:inline /Yu"stdafx.h" /Fp"DEBUG\BAI3_GAME_PONG.PCH" /Fo"DEBUG\\" /Fd"DEBUG\VC140.PDB" /Gd /TP /analyze- C:\USERS\ADMINISTRATOR\DOCUMENTS\VISUAL STUDIO 2015\PROJECTS\LAB_03\BAI3_GAME_PONG\GLOBAL.CPP
^C:\USERS\ADMINISTRATOR\DOCUMENTS\VISUAL STUDIO 2015\PROJECTS\LAB_03\BAI3_GAME_PONG\PADDLE.CPP
/c /ZI /nologo /W3 /WX- /sdl /Od /Oy- /D WIN32 /D _DEBUG /D _CONSOLE /D _UNICODE /D UNICODE /Gm /EHsc /RTC1 /MDd /GS /fp:precise /Zc:wchar_t /Zc:forScope /Zc:inline /Yu"stdafx.h" /Fp"DEBUG\BAI3_GAME_PONG.PCH" /Fo"DEBUG\\" /Fd"DEBUG\VC140.PDB" /Gd /TP /analyze- C:\USERS\ADMINISTRATOR\DOCUMENTS\VISUAL STUDIO 2015\PROJECTS\LAB_03\BAI3_GAME_PONG\PADDLE.CPP
^F:\HOCKY2B\DHMT\PRACTICE\DHMT\LAB_03\BAI3_GAME_PONG\STDAFX.CPP
/c /ZI /JMC /nologo /W3 /WX- /diagnostics:classic /sdl /Od /Oy- /D WIN32 /D _DEBUG /D _CONSOLE /D _UNICODE /D UNICODE /Gm- /EHsc /RTC1 /MDd /GS /fp:precise /Zc:wchar_t /Zc:forScope /Zc:inline /Yc"stdafx.h" /Fp"DEBUG\BAI3_GAME_PONG.PCH" /Fo"DEBUG\\" /Fd"DEBUG\VC141.PDB" /Gd /TP /analyze- /FC F:\HOCKY2B\DHMT\PRACTICE\DHMT\LAB_03\BAI3_GAME_PONG\STDAFX.CPP
^F:\HOCKY2B\DHMT\PRACTICE\DHMT\LAB_03\BAI3_GAME_PONG\BALL.CPP
/c /ZI /JMC /nologo /W3 /WX- /diagnostics:classic /sdl /Od /Oy- /D WIN32 /D _DEBUG /D _CONSOLE /D _UNICODE /D UNICODE /Gm- /EHsc /RTC1 /MDd /GS /fp:precise /Zc:wchar_t /Zc:forScope /Zc:inline /Yu"stdafx.h" /Fp"DEBUG\BAI3_GAME_PONG.PCH" /Fo"DEBUG\\" /Fd"DEBUG\VC141.PDB" /Gd /TP /analyze- /FC F:\HOCKY2B\DHMT\PRACTICE\DHMT\LAB_03\BAI3_GAME_PONG\BALL.CPP
^F:\HOCKY2B\DHMT\PRACTICE\DHMT\LAB_03\BAI3_GAME_PONG\GAME.CPP
/c /ZI /JMC /nologo /W3 /WX- /diagnostics:classic /sdl /Od /Oy- /D WIN32 /D _DEBUG /D _CONSOLE /D _UNICODE /D UNICODE /Gm- /EHsc /RTC1 /MDd /GS /fp:precise /Zc:wchar_t /Zc:forScope /Zc:inline /Yu"stdafx.h" /Fp"DEBUG\BAI3_GAME_PONG.PCH" /Fo"DEBUG\\" /Fd"DEBUG\VC141.PDB" /Gd /TP /analyze- /FC F:\HOCKY2B\DHMT\PRACTICE\DHMT\LAB_03\BAI3_GAME_PONG\GAME.CPP
^F:\HOCKY2B\DHMT\PRACTICE\DHMT\LAB_03\BAI3_GAME_PONG\GLOBAL.CPP
/c /ZI /JMC /nologo /W3 /WX- /diagnostics:classic /sdl /Od /Oy- /D WIN32 /D _DEBUG /D _CONSOLE /D _UNICODE /D UNICODE /Gm- /EHsc /RTC1 /MDd /GS /fp:precise /Zc:wchar_t /Zc:forScope /Zc:inline /Yu"stdafx.h" /Fp"DEBUG\BAI3_GAME_PONG.PCH" /Fo"DEBUG\\" /Fd"DEBUG\VC141.PDB" /Gd /TP /analyze- /FC F:\HOCKY2B\DHMT\PRACTICE\DHMT\LAB_03\BAI3_GAME_PONG\GLOBAL.CPP
^F:\HOCKY2B\DHMT\PRACTICE\DHMT\LAB_03\BAI3_GAME_PONG\PADDLE.CPP
/c /ZI /JMC /nologo /W3 /WX- /diagnostics:classic /sdl /Od /Oy- /D WIN32 /D _DEBUG /D _CONSOLE /D _UNICODE /D UNICODE /Gm- /EHsc /RTC1 /MDd /GS /fp:precise /Zc:wchar_t /Zc:forScope /Zc:inline /Yu"stdafx.h" /Fp"DEBUG\BAI3_GAME_PONG.PCH" /Fo"DEBUG\\" /Fd"DEBUG\VC141.PDB" /Gd /TP /analyze- /FC F:\HOCKY2B\DHMT\PRACTICE\DHMT\LAB_03\BAI3_GAME_PONG\PADDLE.CPP
^F:\HOCKY2B\DHMT\PRACTICE\DHMT\LAB_03\BAI3_GAME_PONG\BAI3_GAME_PONG.CPP
/c /ZI /JMC /nologo /W3 /WX- /diagnostics:classic /sdl /Od /Oy- /D WIN32 /D _DEBUG /D _CONSOLE /D _UNICODE /D UNICODE /Gm- /EHsc /RTC1 /MDd /GS /fp:precise /Zc:wchar_t /Zc:forScope /Zc:inline /Yu"stdafx.h" /Fp"DEBUG\BAI3_GAME_PONG.PCH" /Fo"DEBUG\\" /Fd"DEBUG\VC141.PDB" /Gd /TP /analyze- /FC F:\HOCKY2B\DHMT\PRACTICE\DHMT\LAB_03\BAI3_GAME_PONG\BAI3_GAME_PONG.CPP
