#Command: "C:\Program Files (x86)\Microsoft Visual Studio\2017\Enterprise\VC\Tools\MSVC\14.16.27023\bin\HostX86\x86\link.exe" /ERRORREPORT:PROMPT @C:\Users\Chinh\AppData\Local\Temp\tmpe501337393fe4046935fcc20d7a3726b.rsp
^F:\HOCKY2B\DHMT\PRACTICE\DHMT\LAB_03\BAI3_GAME_PONG\DEBUG\BAI3_GAME_PONG.OBJ|F:\HOCKY2B\DHMT\PRACTICE\DHMT\LAB_03\BAI3_GAME_PONG\DEBUG\BALL.OBJ|F:\HOCKY2B\DHMT\PRACTICE\DHMT\LAB_03\BAI3_GAME_PONG\DEBUG\GAME.OBJ|F:\HOCKY2B\DHMT\PRACTICE\DHMT\LAB_03\BAI3_GAME_PONG\DEBUG\GLOBAL.OBJ|F:\HOCKY2B\DHMT\PRACTICE\DHMT\LAB_03\BAI3_GAME_PONG\DEBUG\PADDLE.OBJ|F:\HOCKY2B\DHMT\PRACTICE\DHMT\LAB_03\BAI3_GAME_PONG\DEBUG\STDAFX.OBJ
F:\HOCKY2B\DHMT\PRACTICE\DHMT\LAB_03\DEBUG\BAI3_GAME_PONG.PDB
