^C:\USERS\ADMINISTRATOR\DOCUMENTS\VISUAL STUDIO 2015\PROJECTS\LAB_01\BT_06\DEBUG\BT_06.OBJ|C:\USERS\ADMINISTRATOR\DOCUMENTS\VISUAL STUDIO 2015\PROJECTS\LAB_01\BT_06\DEBUG\STDAFX.OBJ
C:\USERS\ADMINISTRATOR\DOCUMENTS\VISUAL STUDIO 2015\PROJECTS\LAB_01\DEBUG\BT_06.ILK
C:\USERS\ADMINISTRATOR\DOCUMENTS\VISUAL STUDIO 2015\PROJECTS\LAB_01\DEBUG\BT_06.EXE
C:\USERS\ADMINISTRATOR\DOCUMENTS\VISUAL STUDIO 2015\PROJECTS\LAB_01\DEBUG\BT_06.PDB
